%YAML 1.1
%TAG !u! tag:unity3d.com,2011:
--- !u!114 &11400000
MonoBehaviour:
  m_ObjectHideFlags: 0
  m_CorrespondingSourceObject: {fileID: 0}
  m_PrefabInstance: {fileID: 0}
  m_PrefabAsset: {fileID: 0}
  m_GameObject: {fileID: 0}
  m_Enabled: 1
  m_EditorHideFlags: 0
  m_Script: {fileID: 11500000, guid: a563a3929459419c9b98c926a7b48536, type: 3}
  m_Name: 3_key
  m_EditorClassIdentifier: 
  itemId: 3
  itemName: Klucz
  itemDescription: Ciekawe co otwiera...
  itemSprite: {fileID: 21300000, guid: d24ab3ab7c0a881449bdf7e2c77bf2e2, type: 3}
