%YAML 1.1
%TAG !u! tag:unity3d.com,2011:
--- !u!74 &7400000
AnimationClip:
  m_ObjectHideFlags: 0
  m_CorrespondingSourceObject: {fileID: 0}
  m_PrefabInstance: {fileID: 0}
  m_PrefabAsset: {fileID: 0}
  m_Name: Fade Out
  serializedVersion: 6
  m_Legacy: 0
  m_Compressed: 0
  m_UseHighQualityCurve: 1
  m_RotationCurves: []
  m_CompressedRotationCurves: []
  m_EulerCurves: []
  m_PositionCurves: []
  m_ScaleCurves: []
  m_FloatCurves: []
  m_PPtrCurves:
  - curve:
    - time: 0
      value: {fileID: 21300000, guid: c3bf60e436fe96d48beca6c6713b0dc3, type: 3}
    - time: 0.06666667
      value: {fileID: 21300000, guid: 786587dd2a6d425419325f0ab7ffa468, type: 3}
    - time: 0.13333334
      value: {fileID: 21300000, guid: dd8ed53817ad9594490514cd24e0115d, type: 3}
    - time: 0.2
      value: {fileID: 21300000, guid: be742ded68dcced4db83ad0cafd3da6c, type: 3}
    - time: 0.25
      value: {fileID: 21300000, guid: c82166ae77942854690e0c8e2c19b263, type: 3}
    - time: 0.3
      value: {fileID: 21300000, guid: 2884ff58fa1a73f4fb88afb02be01e91, type: 3}
    - time: 0.36666667
      value: {fileID: 21300000, guid: 8b8b83225346aae48962852fd4cfa5ff, type: 3}
    - time: 0.43333334
      value: {fileID: 21300000, guid: 2182ded468b983f4faf45f53dd3bd632, type: 3}
    - time: 0.48333332
      value: {fileID: 21300000, guid: 2182ded468b983f4faf45f53dd3bd632, type: 3}
    - time: 0.53333336
      value: {fileID: 21300000, guid: f8057228ca0fb5c4b9c149ad607fd542, type: 3}
    - time: 0.6
      value: {fileID: 21300000, guid: 1d1ca77692f1c8c46bb614c4f68f2f5e, type: 3}
    - time: 0.65
      value: {fileID: 21300000, guid: f3fe0a66a61294048802181b8fa165be, type: 3}
    attribute: m_Sprite
    path: 
    classID: 114
    script: {fileID: 11500000, guid: fe87c0e1cc204ed48ad3b37840f39efc, type: 3}
  m_SampleRate: 60
  m_WrapMode: 0
  m_Bounds:
    m_Center: {x: 0, y: 0, z: 0}
    m_Extent: {x: 0, y: 0, z: 0}
  m_ClipBindingConstant:
    genericBindings:
    - serializedVersion: 2
      path: 0
      attribute: 2015549526
      script: {fileID: 11500000, guid: fe87c0e1cc204ed48ad3b37840f39efc, type: 3}
      typeID: 114
      customType: 0
      isPPtrCurve: 1
    pptrCurveMapping:
    - {fileID: 21300000, guid: c3bf60e436fe96d48beca6c6713b0dc3, type: 3}
    - {fileID: 21300000, guid: 786587dd2a6d425419325f0ab7ffa468, type: 3}
    - {fileID: 21300000, guid: dd8ed53817ad9594490514cd24e0115d, type: 3}
    - {fileID: 21300000, guid: be742ded68dcced4db83ad0cafd3da6c, type: 3}
    - {fileID: 21300000, guid: c82166ae77942854690e0c8e2c19b263, type: 3}
    - {fileID: 21300000, guid: 2884ff58fa1a73f4fb88afb02be01e91, type: 3}
    - {fileID: 21300000, guid: 8b8b83225346aae48962852fd4cfa5ff, type: 3}
    - {fileID: 21300000, guid: 2182ded468b983f4faf45f53dd3bd632, type: 3}
    - {fileID: 21300000, guid: 2182ded468b983f4faf45f53dd3bd632, type: 3}
    - {fileID: 21300000, guid: f8057228ca0fb5c4b9c149ad607fd542, type: 3}
    - {fileID: 21300000, guid: 1d1ca77692f1c8c46bb614c4f68f2f5e, type: 3}
    - {fileID: 21300000, guid: f3fe0a66a61294048802181b8fa165be, type: 3}
  m_AnimationClipSettings:
    serializedVersion: 2
    m_AdditiveReferencePoseClip: {fileID: 0}
    m_AdditiveReferencePoseTime: 0
    m_StartTime: 0
    m_StopTime: 0.6666666
    m_OrientationOffsetY: 0
    m_Level: 0
    m_CycleOffset: 0
    m_HasAdditiveReferencePose: 0
    m_LoopTime: 0
    m_LoopBlend: 0
    m_LoopBlendOrientation: 0
    m_LoopBlendPositionY: 0
    m_LoopBlendPositionXZ: 0
    m_KeepOriginalOrientation: 0
    m_KeepOriginalPositionY: 1
    m_KeepOriginalPositionXZ: 0
    m_HeightFromFeet: 0
    m_Mirror: 0
  m_EditorCurves: []
  m_EulerEditorCurves: []
  m_HasGenericRootTransform: 0
  m_HasMotionFloatCurves: 0
  m_Events: []
