%YAML 1.1
%TAG !u! tag:unity3d.com,2011:
--- !u!114 &11400000
MonoBehaviour:
  m_ObjectHideFlags: 0
  m_CorrespondingSourceObject: {fileID: 0}
  m_PrefabInstance: {fileID: 0}
  m_PrefabAsset: {fileID: 0}
  m_GameObject: {fileID: 0}
  m_Enabled: 1
  m_EditorHideFlags: 0
  m_Script: {fileID: 11500000, guid: 59eb0a02a4514d3e9d1ab16e0f6755e7, type: 3}
  m_Name: LockedDoor
  m_EditorClassIdentifier: 
  type: 0
  title: Iris
  sentences:
  - "Drzwi s\u0105 zamkni\u0119te."
